…
``` r
#tidy data (Collect males)
Q1_male <- df_Q1 %>% 
  filter(male != 'NA') %>%
  select(body_temperature, male)
Q1_male
```

    ## # A tibble: 65 x 2
    ##    body_temperature  male
    ##               <dbl> <int>
    ## 1              35.7    70
    ## 2              35.9    71
    ## 3              36.1    74
    ## 4              36.1    80
    ## 5              36.2    73
    ## 6              36.2    75
    ## 7              36.2    82
    ## 8              36.2    64
    ## 9              36.3    69
    ## 10             36.3    70
    ## # ... with 55 more rows

``` r
#tidy data (Collect females)
Q1_female <- df_Q1 %>%
  filter(female != 'NA') %>%
  select(body_temperature, female)
Q1_female
```

    ## # A tibble: 65 x 2
    ##    body_temperature female
    ##               <dbl>  <int>
    ## 1              35.8     69
    ## 2              35.9     62
    ## 3              36.0     75
    ## 4              36.2     66
    ## 5              36.2     68
    ## 6              36.3     57
    ## 7              36.4     61
    ## 8              36.5     84
    ## 9              36.5     61
    ## 10             36.6     77
    ## # ... with 55 more rows
…
